…
drug_use_html = read_html(url)
```

``` r
table_marj = 
  drug_use_html |> 
  html_table() |> 
  first() |>
  slice(-1) 

table_marj
```

    ## # A tibble: 56 × 16
    ##    State     `12+(2013-2014)` `12+(2014-2015)` `12+(P Value)` `12-17(2013-2014)`
    ##    <chr>     <chr>            <chr>            <chr>          <chr>             
    ##  1 Total U.… 12.90a           13.36            0.002          13.28b            
    ##  2 Northeast 13.88a           14.66            0.005          13.98             
    ##  3 Midwest   12.40b           12.76            0.082          12.45             
    ##  4 South     11.24a           11.64            0.029          12.02             
    ##  5 West      15.27            15.62            0.262          15.53a            
    ##  6 Alabama   9.98             9.60             0.426          9.90              
    ##  7 Alaska    19.60a           21.92            0.010          17.30             
    ##  8 Arizona   13.69            13.12            0.364          15.12             
    ##  9 Arkansas  11.37            11.59            0.678          12.79             
    ## 10 Californ… 14.49            15.25            0.103          15.03             
    ## # ℹ 46 more rows
    ## # ℹ 11 more variables: `12-17(2014-2015)` <chr>, `12-17(P Value)` <chr>,
    ## #   `18-25(2013-2014)` <chr>, `18-25(2014-2015)` <chr>, `18-25(P Value)` <chr>,
    ## #   `26+(2013-2014)` <chr>, `26+(2014-2015)` <chr>, `26+(P Value)` <chr>,
    ## #   `18+(2013-2014)` <chr>, `18+(2014-2015)` <chr>, `18+(P Value)` <chr>
…
table_marj
```

    ## # A tibble: 560 × 4
    ##    State      age   year      percent
    ##    <chr>      <chr> <chr>       <dbl>
    ##  1 Total U.S. 12+   2013-2014   12.9 
    ##  2 Total U.S. 12+   2014-2015   13.4 
    ##  3 Total U.S. 12-17 2013-2014   13.3 
    ##  4 Total U.S. 12-17 2014-2015   12.9 
    ##  5 Total U.S. 18-25 2013-2014   31.8 
    ##  6 Total U.S. 18-25 2014-2015   32.1 
    ##  7 Total U.S. 26+   2013-2014    9.63
    ##  8 Total U.S. 26+   2014-2015   10.2 
    ##  9 Total U.S. 18+   2013-2014   12.9 
    ## 10 Total U.S. 18+   2014-2015   13.4 
    ## # ℹ 550 more rows
…
<img src="strings_and_factors_files/figure-gfm/unnamed-chunk-14-1.png" width="90%" />

# NYC restaurant inspections

``` r
data("rest_inspec")

rest_inspec
```

    ## # A tibble: 397,584 × 18
    ##    action          boro  building  camis critical_flag cuisine_description dba  
    ##    <chr>           <chr> <chr>     <int> <chr>         <chr>               <chr>
    ##  1 Violations wer… MANH… 425      4.15e7 Not Critical  Italian             SPIN…
    ##  2 Violations wer… MANH… 37       4.12e7 Critical      Korean              SHIL…
    ##  3 Violations wer… MANH… 15       4.11e7 Not Critical  CafÃ©/Coffee/Tea    CITY…
    ##  4 Violations wer… MANH… 35       4.13e7 Critical      Korean              MADA…
    ##  5 Violations wer… MANH… 1271     5.00e7 Critical      American            THE …
    ##  6 Violations wer… MANH… 155      5.00e7 Not Critical  Donuts              DUNK…
    ##  7 Violations wer… MANH… 1164     5.00e7 Critical      Salads              SWEE…
    ##  8 Violations wer… MANH… 37       4.12e7 Not Critical  Korean              SHIL…
    ##  9 Violations wer… MANH… 299      5.01e7 Not Critical  American            PRET…
    ## 10 Violations wer… MANH… 53       4.04e7 Not Critical  Korean              HAN …
    ## # ℹ 397,574 more rows
    ## # ℹ 11 more variables: inspection_date <dttm>, inspection_type <chr>,
    ## #   phone <chr>, record_date <dttm>, score <int>, street <chr>,
    ## #   violation_code <chr>, violation_description <chr>, zipcode <int>,
    ## #   grade <chr>, grade_date <dttm>
…
``` r
rest_inspec =
  rest_inspec |> 
  filter(
    str_detect(grade, "[A-C]"),
    !(boro == "Missing")
  )

rest_inspec
```

    ## # A tibble: 188,195 × 18
    ##    action          boro  building  camis critical_flag cuisine_description dba  
    ##    <chr>           <chr> <chr>     <int> <chr>         <chr>               <chr>
    ##  1 Violations wer… MANH… 1271     5.00e7 Critical      American            THE …
    ##  2 Violations wer… MANH… 37       4.12e7 Not Critical  Korean              SHIL…
    ##  3 Violations wer… MANH… 53       4.04e7 Not Critical  Korean              HAN …
    ##  4 Violations wer… MANH… 287      4.16e7 Not Critical  American            BRGR 
    ##  5 Violations wer… MANH… 800      4.11e7 Not Critical  Pizza               WALD…
    ##  6 Violations wer… MANH… 121      5.00e7 Not Critical  CafÃ©/Coffee/Tea    LUNA 
    ##  7 Violations wer… MANH… 124      4.10e7 Critical      American            JOHN…
    ##  8 Violations wer… MANH… 138      4.11e7 Critical      American            AROM…
    ##  9 Violations wer… MANH… 839      5.00e7 Not Critical  American            L'AM…
    ## 10 Violations wer… MANH… 35       4.13e7 Critical      Korean              MADA…
    ## # ℹ 188,185 more rows
    ## # ℹ 11 more variables: inspection_date <dttm>, inspection_type <chr>,
    ## #   phone <chr>, record_date <dttm>, score <int>, street <chr>,
    ## #   violation_code <chr>, violation_description <chr>, zipcode <int>,
    ## #   grade <chr>, grade_date <dttm>

``` r
rest_inspec |>
  mutate(dba = str_to_sentence(dba)) |> 
  filter(str_detect(dba, "Pizza"))
```

    ## # A tibble: 775 × 18
    ##    action          boro  building  camis critical_flag cuisine_description dba  
    ##    <chr>           <chr> <chr>     <int> <chr>         <chr>               <chr>
    ##  1 Violations wer… MANH… 151      5.00e7 Not Critical  Pizza               Pizz…
    ##  2 Violations wer… MANH… 151      5.00e7 Critical      Pizza               Pizz…
    ##  3 Violations wer… MANH… 151      5.00e7 Critical      Pizza               Pizz…
    ##  4 Violations wer… MANH… 15       5.01e7 Critical      Pizza               & Pi…
    ##  5 Violations wer… MANH… 151      5.00e7 Critical      Pizza               Pizz…
    ##  6 Violations wer… MANH… 151      5.00e7 Not Critical  Pizza               Pizz…
    ##  7 Violations wer… MANH… 15       5.01e7 Critical      Pizza               & Pi…
    ##  8 Violations wer… MANH… 151      5.00e7 Critical      Pizza               Pizz…
    ##  9 Violations wer… MANH… 84       5.00e7 Not Critical  Pizza               Pizza
    ## 10 Violations wer… MANH… 525      5.01e7 Not Critical  Pizza               Pizz…
    ## # ℹ 765 more rows
    ## # ℹ 11 more variables: inspection_date <dttm>, inspection_type <chr>,
    ## #   phone <chr>, record_date <dttm>, score <int>, street <chr>,
    ## #   violation_code <chr>, violation_description <chr>, zipcode <int>,
    ## #   grade <chr>, grade_date <dttm>
…
